\relax 
\catcode `"\active 
\babel@aux{dutch}{}
\@writefile{lof}{\contentsline {figure}{\numberline {1}{\ignorespaces Terug knop voor de feedback}}{2}\protected@file@percent }
\@writefile{lof}{\contentsline {figure}{\numberline {2}{\ignorespaces Terug knop voor de feedback}}{3}\protected@file@percent }
\@writefile{lof}{\contentsline {figure}{\numberline {3}{\ignorespaces onder elkaar voor de feedback}}{4}\protected@file@percent }
\@writefile{lof}{\contentsline {figure}{\numberline {4}{\ignorespaces Tekst onder elkaar na de feedback}}{5}\protected@file@percent }
\@writefile{lof}{\contentsline {figure}{\numberline {5}{\ignorespaces Letter in plaats van cijfers}}{6}\protected@file@percent }
\@writefile{lof}{\contentsline {figure}{\numberline {6}{\ignorespaces Logica fout}}{7}\protected@file@percent }
