\relax 
\catcode `"\active 
\babel@aux{dutch}{}
\@writefile{toc}{\contentsline {section}{\numberline {1}Testplan}{1}\protected@file@percent }
\@writefile{toc}{\contentsline {subsection}{\numberline {1.1}Scenario's}{2}\protected@file@percent }
\newlabel{table:scenarios}{{1.1}{2}}
\@writefile{toc}{\contentsline {section}{\numberline {2}Testrapport}{3}\protected@file@percent }
\@writefile{toc}{\contentsline {subsection}{\numberline {2.1}Uitkomsten}{3}\protected@file@percent }
\@writefile{toc}{\contentsline {paragraph}{1. De gebruiker kan inloggen met een correcte combinatie van RFID en pincode}{3}\protected@file@percent }
\@writefile{toc}{\contentsline {paragraph}{2. Het pinproces moet altijd afgebroken kunnen worden}{3}\protected@file@percent }
\@writefile{toc}{\contentsline {paragraph}{3. Het pinproces moet altijd afgebroken kunnen worden}{3}\protected@file@percent }
\@writefile{toc}{\contentsline {paragraph}{4. Geef de gebruiker geen geld wanneer er onvoldoende saldo is en meld dit aan de gebruiker.}{3}\protected@file@percent }
\@writefile{toc}{\contentsline {paragraph}{5. Na 3 foute inlog pogingen word de pas geblokkeerd, en na een correcte inlog poging zal wordt deze counter gereset.}{3}\protected@file@percent }
\@writefile{toc}{\contentsline {paragraph}{6. De gebruiker kan elke combinatie van biljetten kiezen van het gewenste bedrag.}{3}\protected@file@percent }
\@writefile{toc}{\contentsline {paragraph}{7. De gebruiker kan zelf een bedrag kunnen intoetsen om op te kunnen nemen}{3}\protected@file@percent }
\@writefile{toc}{\contentsline {paragraph}{8. Ongewenste input van hackers kan niet binnen komen via de client software.}{4}\protected@file@percent }
