\relax 
\@writefile{toc}{\contentsline {section}{\numberline {1}Criteria}{1}\protected@file@percent }
\@writefile{toc}{\contentsline {section}{\numberline {2}Review van Harrold aan Merijn}{1}\protected@file@percent }
\@writefile{toc}{\contentsline {subsection}{\numberline {2.1}Tops}{1}\protected@file@percent }
\@writefile{toc}{\contentsline {subsection}{\numberline {2.2}Tips}{2}\protected@file@percent }
\@writefile{toc}{\contentsline {section}{\numberline {3}Review van Harrold aan Merijn}{2}\protected@file@percent }
\@writefile{toc}{\contentsline {section}{\numberline {4}Tops}{2}\protected@file@percent }
